\relax 
\citation{kazemba2016survey}
\citation{Murman:2009es}
\citation{Teramoto:2001up}
\citation{Teramoto:2002hu}
\citation{Stern:2012wc}
\@writefile{toc}{\contentsline {section}{\numberline {I}Introduction}{1}}
\citation{Dutta:2015wo}
\citation{Dutta:2015wo}
\@writefile{toc}{\contentsline {section}{\numberline {II}Supersonic Inflatable Aerodynamic Decelerator (SIAD)}{2}}
\@writefile{lof}{\contentsline {figure}{\numberline {1}{\ignorespaces SIAD vehicle.\relax }}{2}}
\providecommand*\caption@xref[2]{\@setref\relax\@undefined{#1}}
\newlabel{f:siad_vehicle}{{1}{2}}
\citation{Wilder:2016}
\citation{brown2010transonic}
\citation{canning1970ballistic}
\@writefile{lof}{\contentsline {figure}{\numberline {2}{\ignorespaces  SFDT experiment overview\cite  {Dutta:2015wo}.\relax }}{3}}
\newlabel{fig:SFDT-graphic}{{2}{3}}
\@writefile{lof}{\contentsline {subfigure}{\numberline{(a)}{\ignorespaces {SFDT vehicle aftbody with stowed SIAD }}}{3}}
\@writefile{lof}{\contentsline {subfigure}{\numberline{(b)}{\ignorespaces {SFDT forebody with deployed SIAD}}}{3}}
\@writefile{toc}{\contentsline {section}{\numberline {III}SIAD-R Ballistic Range Experiment}{3}}
\newlabel{experiment_background}{{III}{3}}
\@writefile{lot}{\contentsline {table}{\numberline {1}{\ignorespaces Model Properties and Test Conditions for Analyzed Shots.\relax }}{3}}
\newlabel{tab:test_table}{{1}{3}}
\citation{yates1996comprehensive}
\citation{Yates:1995vu}
\citation{Nompelis:2004vg,Nompelis:2005wo}
\citation{Wright:1997ws}
\@writefile{toc}{\contentsline {subsection}{\numberline {A}Data Reduction and Analysis}{4}}
\newlabel{CADRA_background}{{A}{4}}
\@writefile{toc}{\contentsline {section}{\numberline {IV}Numerical Approach}{4}}
\newlabel{numerical_approach}{{IV}{4}}
\@writefile{toc}{\contentsline {subsection}{\numberline {A}Flow Solver}{4}}
\citation{maccormack1989solution}
\citation{Subbareddy:2009ku}
\citation{Murman:2009es}
\citation{Stern:2012wc}
\citation{Brock:2014dy}
\citation{SPALART:2013dq}
\citation{Catris:2000dr}
\citation{Brock:2014dy}
\citation{Stern:2012wc}
\@writefile{toc}{\contentsline {subsection}{\numberline {B}Computational Mesh}{5}}
\@writefile{lof}{\contentsline {figure}{\numberline {3}{\ignorespaces Visualizations of the computational mesh used in all simulations.\relax }}{5}}
\newlabel{f:base_mesh}{{3}{5}}
\@writefile{toc}{\contentsline {subsection}{\numberline {C}Free-flight Aerodynamics Solver and Moving Mesh Approach}{5}}
\@writefile{lof}{\contentsline {figure}{\numberline {4}{\ignorespaces Illustration of the mesh deformation approach used in US3D. The left figure shows the undeformed mesh, and the figure on the right shows the mesh after the vehicle has been rotated.\relax }}{6}}
\newlabel{f:deformed_mesh}{{4}{6}}
\@writefile{toc}{\contentsline {subsection}{\numberline {D}Simulation Methodology}{6}}
\newlabel{sim_method}{{D}{6}}
\@writefile{toc}{\contentsline {subsubsection}{\numberline {1}Flow Initialization}{6}}
\@writefile{lof}{\contentsline {figure}{\numberline {5}{\ignorespaces Flow visualization of initialized state for the simulation of Shot 2623.\relax }}{6}}
\newlabel{f:flow_viz}{{5}{6}}
\@writefile{lof}{\contentsline {figure}{\numberline {6}{\ignorespaces Comparison of experimental and simulated shadowgraphs from initial flow state.\relax }}{7}}
\newlabel{f:flow_compare}{{6}{7}}
\@writefile{toc}{\contentsline {subsubsection}{\numberline {2}Artificial Startup for Dynamics Simulations}{7}}
\@writefile{lof}{\contentsline {figure}{\numberline {7}{\ignorespaces Pre-fitting experimental data to extract rates.\relax }}{8}}
\newlabel{f:theta_psi_fit}{{7}{8}}
\@writefile{toc}{\contentsline {section}{\numberline {V}Dynamic Simulation Results}{8}}
\newlabel{dynamic_results}{{V}{8}}
\@writefile{toc}{\contentsline {subsection}{\numberline {A}Free-Flight Behavior Comparisons}{8}}
\@writefile{lof}{\contentsline {figure}{\numberline {8}{\ignorespaces Comparison of simulated dynamics to experimental data for Shot 2623.\relax }}{8}}
\newlabel{f:2623_results}{{8}{8}}
\@writefile{lof}{\contentsline {subfigure}{\numberline{(a)}{\ignorespaces {Computational Mesh Front-View}}}{8}}
\@writefile{lof}{\contentsline {subfigure}{\numberline{(b)}{\ignorespaces {Computational Mesh Aft-View}}}{8}}
\@writefile{lof}{\contentsline {subfigure}{\numberline{(a)}{\ignorespaces {Baseline Mesh}}}{8}}
\@writefile{lof}{\contentsline {subfigure}{\numberline{(b)}{\ignorespaces {Deformed Mesh}}}{8}}
\@writefile{lof}{\contentsline {subfigure}{\numberline{(a)}{\ignorespaces {Streamwise Velocity (m/s)}}}{8}}
\@writefile{lof}{\contentsline {subfigure}{\numberline{(b)}{\ignorespaces {Temperature (K)}}}{8}}
\@writefile{lof}{\contentsline {subfigure}{\numberline{(a)}{\ignorespaces {Experimental Shadowgraph}}}{8}}
\@writefile{lof}{\contentsline {subfigure}{\numberline{(b)}{\ignorespaces {Simulation Psuedo-Shadowgraph}}}{8}}
\@writefile{lof}{\contentsline {subfigure}{\numberline{(a)}{\ignorespaces {Pitch Fit}}}{8}}
\@writefile{lof}{\contentsline {subfigure}{\numberline{(b)}{\ignorespaces {Yaw Fit}}}{8}}
\@writefile{lof}{\contentsline {subfigure}{\numberline{(a)}{\ignorespaces {Pitch and Yaw Comparison}}}{8}}
\@writefile{lof}{\contentsline {subfigure}{\numberline{(b)}{\ignorespaces {Total Angle-of-Attack}}}{8}}
\@writefile{lof}{\contentsline {subfigure}{\numberline{(c)}{\ignorespaces {Down Range Comparison}}}{8}}
\@writefile{lof}{\contentsline {figure}{\numberline {9}{\ignorespaces Comparison of predicted dynamics to experimental results.\relax }}{9}}
\newlabel{f:all_data_results}{{9}{9}}
\@writefile{lof}{\contentsline {subfigure}{\numberline{(a)}{\ignorespaces {Shot 2642 Pitch and Yaw Comparison}}}{9}}
\@writefile{lof}{\contentsline {subfigure}{\numberline{(b)}{\ignorespaces {Shot 2642 Total Angle-of-Attack}}}{9}}
\@writefile{lof}{\contentsline {subfigure}{\numberline{(c)}{\ignorespaces {Shot 2642 Down Range Comparison}}}{9}}
\@writefile{lof}{\contentsline {subfigure}{\numberline{(d)}{\ignorespaces {Shot 2643 Pitch and Yaw Comparison}}}{9}}
\@writefile{lof}{\contentsline {subfigure}{\numberline{(e)}{\ignorespaces {Shot 2643 Total Angle-of-Attack}}}{9}}
\@writefile{lof}{\contentsline {subfigure}{\numberline{(f)}{\ignorespaces {Shot 2643 Down Range Comparison}}}{9}}
\@writefile{lof}{\contentsline {subfigure}{\numberline{(g)}{\ignorespaces {Shot 2648 Pitch and Yaw Comparison}}}{9}}
\@writefile{lof}{\contentsline {subfigure}{\numberline{(h)}{\ignorespaces {Shot 2648 Total Angle-of-Attack}}}{9}}
\@writefile{lof}{\contentsline {subfigure}{\numberline{(i)}{\ignorespaces {Shot 2648 Down Range Comparison}}}{9}}
\@writefile{lof}{\contentsline {subfigure}{\numberline{(j)}{\ignorespaces {Shot 2638 Pitch and Yaw Comparison}}}{9}}
\@writefile{lof}{\contentsline {subfigure}{\numberline{(k)}{\ignorespaces {Shot 2638 Total Angle-of-Attack}}}{9}}
\@writefile{lof}{\contentsline {subfigure}{\numberline{(l)}{\ignorespaces {Shot 2638 Down Range Comparison}}}{9}}
\citation{Teramoto:2001up,Teramoto:2002hu}
\@writefile{toc}{\contentsline {subsection}{\numberline {B}CADRA Analysis of Simulated Trajectories}{10}}
\newlabel{cadara_analysis}{{B}{10}}
\@writefile{toc}{\contentsline {subsection}{\numberline {C}Flow physics and Vehicle Response}{10}}
\citation{Teramoto:2001up}
\@writefile{lof}{\contentsline {figure}{\numberline {10}{\ignorespaces Comparisons of CADRA analysis for simulated and experimental data.\relax }}{11}}
\newlabel{f:cadra_compare}{{10}{11}}
\@writefile{lof}{\contentsline {subfigure}{\numberline{(a)}{\ignorespaces {Comparison of Drag Coefficient}}}{11}}
\@writefile{lof}{\contentsline {subfigure}{\numberline{(b)}{\ignorespaces {Comparison of Lift Coefficient}}}{11}}
\@writefile{lof}{\contentsline {subfigure}{\numberline{(c)}{\ignorespaces {Comparison of Moment Coefficient}}}{11}}
\@writefile{lof}{\contentsline {subfigure}{\numberline{(d)}{\ignorespaces {Comparison of Pitch Damping Coefficient}}}{11}}
\bibdata{Brock_AIAA_Conference_Paper_Jan2017}
\bibcite{kazemba2016survey}{1}
\bibcite{Murman:2009es}{2}
\@writefile{lof}{\contentsline {figure}{\numberline {11}{\ignorespaces  Simulated pressure probes at various locations on the forebody (\textit  {top}), the backshell(\textit  {middle}), and the wake(\textit  {bottom}) for Shot 2623.\relax }}{12}}
\newlabel{f:three_plots}{{11}{12}}
\@writefile{toc}{\contentsline {section}{\numberline {VI}Conclusions}{12}}
\@writefile{toc}{\contentsline {section}{\numberline {VII}Acknowledgments}{12}}
\@writefile{lof}{\contentsline {figure}{\numberline {12}{\ignorespaces Comparison of forebody pressure profiles.\relax }}{13}}
\newlabel{f:forebody_probe_results}{{12}{13}}
\@writefile{lof}{\contentsline {subfigure}{\numberline{(a)}{\ignorespaces {Shot 2623 (Mach 2.03)}}}{13}}
\@writefile{lof}{\contentsline {subfigure}{\numberline{(b)}{\ignorespaces {Shot 2642 (Mach 2.91)}}}{13}}
\@writefile{lof}{\contentsline {subfigure}{\numberline{(c)}{\ignorespaces {Shot 2643 (Mach 3.31)}}}{13}}
\@writefile{lof}{\contentsline {subfigure}{\numberline{(d)}{\ignorespaces {Shot 2648 (Mach 3.49)}}}{13}}
\@writefile{lof}{\contentsline {subfigure}{\numberline{(e)}{\ignorespaces {Shot 2638 (Mach 3.78)}}}{13}}
\@writefile{lof}{\contentsline {figure}{\numberline {13}{\ignorespaces Comparison of backshell pressure profiles.\relax }}{14}}
\newlabel{f:aftbody_probe_results}{{13}{14}}
\@writefile{lof}{\contentsline {subfigure}{\numberline{(a)}{\ignorespaces {Shot 2623 (Mach 2.03)}}}{14}}
\@writefile{lof}{\contentsline {subfigure}{\numberline{(b)}{\ignorespaces {Shot 2642 (Mach 2.91)}}}{14}}
\@writefile{lof}{\contentsline {subfigure}{\numberline{(c)}{\ignorespaces {Shot 2643 (Mach 3.31)}}}{14}}
\@writefile{lof}{\contentsline {subfigure}{\numberline{(d)}{\ignorespaces {Shot 2648 (Mach 3.49)}}}{14}}
\@writefile{lof}{\contentsline {subfigure}{\numberline{(e)}{\ignorespaces {Shot 2638 (Mach 3.78)}}}{14}}
\@writefile{lof}{\contentsline {figure}{\numberline {14}{\ignorespaces Comparison of wake pressure profiles.\relax }}{15}}
\newlabel{f:wake_probe_results}{{14}{15}}
\@writefile{lof}{\contentsline {subfigure}{\numberline{(a)}{\ignorespaces {Shot 2623 (Mach 2.03)}}}{15}}
\@writefile{lof}{\contentsline {subfigure}{\numberline{(b)}{\ignorespaces {Shot 2642 (Mach 2.91)}}}{15}}
\@writefile{lof}{\contentsline {subfigure}{\numberline{(c)}{\ignorespaces {Shot 2643 (Mach 3.31)}}}{15}}
\@writefile{lof}{\contentsline {subfigure}{\numberline{(d)}{\ignorespaces {Shot 2648 (Mach 3.49)}}}{15}}
\@writefile{lof}{\contentsline {subfigure}{\numberline{(e)}{\ignorespaces {Shot 2638 (Mach 3.78)}}}{15}}
\bibcite{Teramoto:2001up}{3}
\bibcite{Teramoto:2002hu}{4}
\bibcite{Stern:2012wc}{5}
\bibcite{Dutta:2015wo}{6}
\bibcite{Wilder:2016}{7}
\bibcite{brown2010transonic}{8}
\bibcite{canning1970ballistic}{9}
\bibcite{yates1996comprehensive}{10}
\bibcite{Yates:1995vu}{11}
\bibcite{Nompelis:2004vg}{12}
\bibcite{Nompelis:2005wo}{13}
\bibcite{Wright:1997ws}{14}
\bibcite{maccormack1989solution}{15}
\bibcite{Subbareddy:2009ku}{16}
\bibcite{Brock:2014dy}{17}
\bibcite{SPALART:2013dq}{18}
\bibcite{Catris:2000dr}{19}
\bibstyle{aiaa}
\newlabel{LastPage}{{}{16}}
\xdef\lastpage@lastpage{16}
\gdef\lastpage@lastpageHy{}
